{
    "variants": {
        "half=bottom": [
			{ "model": "half_slab_acacia" },
			{ "model": "half_slab_acacia2" },
			{ "model": "half_slab_acacia3" },
			{ "model": "half_slab_acacia4" }
		],
        "half=top": [
			{ "model": "upper_slab_acacia" },
			{ "model": "upper_slab_acacia2" },
			{ "model": "upper_slab_acacia3" },
			{ "model": "upper_slab_acacia4" }
		]
    }
}
